WeightClassKg,Name,Division,Sex,Best3SquatKg,Best3BenchKg,Best3DeadliftKg,TotalKg,Event,Equipment,Place
,Roxanne Hack,Open,F,127.01,58.97,149.69,335.66,SBD,Single-ply,1
,Marcia Insley,Open,F,129.27,56.7,149.69,335.66,SBD,Single-ply,2
,Kimberly Daron,Open,F,111.13,56.7,131.54,299.37,SBD,Single-ply,3
,Pat Cummins,Open,F,136.08,54.43,147.42,337.93,SBD,Single-ply,4
,S. Hamparion,Open,F,104.33,52.16,117.93,274.42,SBD,Single-ply,5
,Julie Baker,Open,F,99.79,54.43,120.2,274.42,SBD,Single-ply,6
,K. Canfield,Open,F,90.72,45.36,113.4,249.48,SBD,Single-ply,7
,Laurie Deible,Open,F,68.04,38.56,79.38,185.97,SBD,Single-ply,8
,Owen Smith,Masters,M,274.42,197.31,278.96,750.7,SBD,Single-ply,1
,James Rummell,Masters,M,283.5,158.76,249.48,691.73,SBD,Single-ply,2
,Martin Scott,Masters,M,235.87,149.69,249.48,635.03,SBD,Single-ply,3
,Al Dieter,Masters,M,247.21,154.22,267.62,669.05,SBD,Single-ply,4
,E. Fleisher,Masters,M,181.44,115.67,210.92,508.02,SBD,Single-ply,5
,Dave McEwen,Masters,M,181.44,99.79,190.51,471.74,SBD,Single-ply,6
,Charles Lee,Masters,M,127.01,120.2,176.9,424.11,SBD,Single-ply,7
,Don Franks,Masters,M,183.7,108.86,158.76,451.32,SBD,Single-ply,8
52,Steve Blank,Open,M,154.22,86.18,167.83,408.23,SBD,Single-ply,1
60,Ron Jeter,Open,M,204.12,138.35,224.53,566.99,SBD,Single-ply,1
60,Mike Freecorn,Open,M,156.49,86.18,206.38,449.06,SBD,Single-ply,2
60,John Sanchez,Open,M,172.37,95.25,158.76,426.38,SBD,Single-ply,3
60,Kerry McKinning,Open,M,129.27,95.25,147.42,371.95,SBD,Single-ply,4
67.5,Scott McFarland,Open,M,240.4,127.01,235.87,603.28,SBD,Single-ply,1
67.5,Ron Marosan,Open,M,213.19,138.35,204.12,555.65,SBD,Single-ply,2
67.5,John Hartge,Open,M,172.37,142.88,222.26,537.51,SBD,Single-ply,3
67.5,Steve Line,Open,M,195.04,108.86,208.65,512.56,SBD,Single-ply,4
67.5,Mike Morhidge,Open,M,181.44,117.93,204.12,503.49,SBD,Single-ply,5
67.5,C. Henderson,Open,M,195.04,113.4,190.51,498.95,SBD,Single-ply,6
67.5,Mike Bradley,Open,M,,,,,SBD,Single-ply,DQ
75,Mike Strickland,Open,M,244.94,147.42,254.01,646.37,SBD,Single-ply,1
75,Mike Chaffee,Open,M,210.92,154.22,249.48,614.62,SBD,Single-ply,2
75,Scott Helzman,Open,M,208.65,140.61,226.8,576.06,SBD,Single-ply,3
75,Rick Luzader,Open,M,215.46,108.86,244.94,569.26,SBD,Single-ply,4
75,David Dunne,Open,M,204.12,129.27,226.8,560.19,SBD,Single-ply,5
75,James Leslie,Open,M,208.65,136.08,215.46,560.19,SBD,Single-ply,6
75,Jeff Ritzler,Open,M,199.58,129.27,199.58,528.44,SBD,Single-ply,7
75,Keith Erford,Open,M,170.1,113.4,226.8,510.29,SBD,Single-ply,8
75,James Miller,Open,M,151.95,104.33,170.1,426.38,SBD,Single-ply,9
75,Arnold Randolph,Open,M,217.72,,,,SBD,Single-ply,DQ
75,Tony Prochaska,Open,M,213.19,,,,SBD,Single-ply,DQ
75,David Hendrick,Open,M,,,,,SBD,Single-ply,DQ
82.5,Gary Allor,Open,M,294.84,219.99,274.42,789.25,SBD,Single-ply,1
82.5,Ken Horewitch,Open,M,260.82,158.76,260.82,680.39,SBD,Single-ply,2
82.5,Andy Lynch,Open,M,254.01,136.08,272.16,662.24,SBD,Single-ply,3
82.5,K. Harrington,Open,M,238.14,158.76,258.55,655.44,SBD,Single-ply,4
82.5,Dave Harless,Open,M,254.01,158.76,226.8,639.57,SBD,Single-ply,5
82.5,Tom McGowan,Open,M,229.06,154.22,226.8,610.08,SBD,Single-ply,6
82.5,Kevin Honis,Open,M,226.8,131.54,226.8,585.13,SBD,Single-ply,7
82.5,Mark Mason,Open,M,181.44,124.74,242.67,548.85,SBD,Single-ply,8
82.5,John Marcelli,Open,M,199.58,102.06,217.72,519.36,SBD,Single-ply,9
82.5,E. Fleisher,Open,M,181.44,115.67,210.92,508.02,SBD,Single-ply,10
82.5,Dave Armstrong,Open,M,174.63,124.74,199.58,498.95,SBD,Single-ply,11
82.5,Dave Hopkins,Open,M,170.1,124.74,199.58,494.42,SBD,Single-ply,12
82.5,Chris Erb,Open,M,172.37,111.13,199.58,483.08,SBD,Single-ply,13
82.5,Dave McEwen,Open,M,181.44,99.79,190.51,471.74,SBD,Single-ply,14
82.5,Peter Galanic,Open,M,,,,,SBD,Single-ply,DQ
82.5,Ken Whitten,Open,M,,,,,SBD,Single-ply,DQ
90,Brian Gill,Open,M,297.1,158.76,281.23,737.09,SBD,Single-ply,1
90,Joe Dimaggio,Open,M,288.03,149.69,290.3,728.02,SBD,Single-ply,2
90,John Wolfe,Open,M,285.76,142.88,267.62,696.26,SBD,Single-ply,3
90,Greg Foster,Open,M,249.48,163.29,267.62,680.39,SBD,Single-ply,4
90,Clif Bullock,Open,M,260.82,147.42,263.08,671.32,SBD,Single-ply,5
90,Len Mintus,Open,M,249.48,151.95,249.48,650.91,SBD,Single-ply,6
90,Duane Bartolet,Open,M,242.67,158.76,247.21,648.64,SBD,Single-ply,7
90,Martin Scott,Open,M,235.87,149.69,249.48,635.03,SBD,Single-ply,8
90,B. Reischman,Open,M,260.82,136.08,226.8,623.69,SBD,Single-ply,9
90,William Stephenson,Open,M,229.06,154.22,226.8,610.08,SBD,Single-ply,10
90,Gary Neff,Open,M,240.4,142.88,217.72,601.01,SBD,Single-ply,11
90,Mike Anderson,Open,M,226.8,145.15,204.12,576.06,SBD,Single-ply,12
100,John Black,Open,M,335.66,192.78,319.78,848.22,SBD,Single-ply,1
100,Tim Swanger,Open,M,306.17,190.51,312.98,809.66,SBD,Single-ply,2
100,Dave Ward,Open,M,317.51,206.38,254.01,777.91,SBD,Single-ply,3
100,Robert Israel,Open,M,308.44,167.83,285.76,762.04,SBD,Single-ply,4
100,Owen Smith,Open,M,274.42,197.31,278.96,750.7,SBD,Single-ply,5
100,Peter Fritsch,Open,M,303.91,174.63,272.16,750.7,SBD,Single-ply,6
100,Mark Sacy,Open,M,288.03,188.24,267.62,743.89,SBD,Single-ply,7
100,William Gosser,Open,M,294.84,165.56,276.69,737.09,SBD,Single-ply,8
100,Jerry Kusar,Open,M,294.84,172.37,263.08,730.28,SBD,Single-ply,9
100,David Kenne,Open,M,283.5,147.42,272.16,703.07,SBD,Single-ply,10
100,Al Deiter,Open,M,247.21,154.22,267.62,669.05,SBD,Single-ply,11
100,Todd Ruppert,Open,M,249.48,165.56,240.4,655.44,SBD,Single-ply,12
100,Andy Morales,Open,M,260.82,131.54,256.28,648.64,SBD,Single-ply,13
100,Dave Skiver,Open,M,226.8,131.54,247.21,605.55,SBD,Single-ply,14
100,Mike Krach,Open,M,235.87,151.95,213.19,601.01,SBD,Single-ply,15
100,Tim Stockman,Open,M,204.12,158.76,238.14,601.01,SBD,Single-ply,16
100,Dave Breneik,Open,M,229.06,158.76,213.19,601.01,SBD,Single-ply,17
100,Terry Stevens,Open,M,204.12,158.76,215.46,578.33,SBD,Single-ply,18
100,Perry Boise,Open,M,233.6,127.01,204.12,564.72,SBD,Single-ply,19
100,D. Westhoven,Open,M,204.12,131.54,213.19,548.85,SBD,Single-ply,20
100,James Prochaska,Open,M,276.69,204.12,,,SBD,Single-ply,DQ
110,Bob Zaworski,Open,M,367.41,204.12,301.64,873.17,SBD,Single-ply,1
110,Craig Gilliam,Open,M,308.44,210.92,272.16,791.52,SBD,Single-ply,2
110,John Brown,Open,M,281.23,181.44,297.1,759.77,SBD,Single-ply,3
110,M. Lawrence,Open,M,326.59,138.35,274.42,739.36,SBD,Single-ply,4
110,Guy Bowser,Open,M,272.16,154.22,294.84,721.21,SBD,Single-ply,5
110,James Rummell,Open,M,283.5,158.76,249.48,691.73,SBD,Single-ply,6
110,Terry Peoples,Open,M,258.55,172.37,254.01,684.92,SBD,Single-ply,7
110,David Cammon,Open,M,204.12,172.37,217.72,594.21,SBD,Single-ply,8
110,Bill Baron,Open,M,,,,,SBD,Single-ply,DQ
125,Brett Stager,Open,M,376.48,204.12,317.51,898.11,SBD,Single-ply,1
125,Robert Applequist,Open,M,297.1,217.72,319.78,834.61,SBD,Single-ply,2
125,Randy Davis,Open,M,267.62,172.37,331.12,771.11,SBD,Single-ply,3
125,Alan Przybyla,Open,M,283.5,167.83,272.16,723.48,SBD,Single-ply,4
125,Steve Kovacs,Open,M,276.69,149.69,254.01,680.39,SBD,Single-ply,5
125,Tim Pierce,Open,M,219.99,138.35,281.23,639.57,SBD,Single-ply,6
125+,James Cuningham,Open,M,324.32,188.24,310.71,823.27,SBD,Single-ply,1
125+,Tom Ehiner,Open,M,276.69,190.51,326.59,793.79,SBD,Single-ply,2
125+,Steve Lindway,Open,M,319.78,161.03,294.84,775.64,SBD,Single-ply,3
125+,John Selly,Open,M,263.08,167.83,,,SBD,Single-ply,DQ
125+,Richard Lacy,Open,M,,,,,SBD,Single-ply,DQ
